{
	"info": {
		"_postman_id": "76d35359-d827-44b1-b9aa-50ba75a89508",
		"name": "Extendeal Api Challenge",
		"schema": "https://schema.getpostman.com/json/collection/v2.1.0/collection.json",
		"_exporter_id": "10210442"
	},
	"item": [
		{
			"name": "Get Pictures",
			"request": {
				"method": "GET",
				"header": [
					{
						"key": "HTTP-USER-ID",
						"value": "1",
						"type": "text"
					},
					{
						"key": "Content-Type",
						"value": "application/json",
						"type": "text"
					},
					{
						"key": "Accept",
						"value": "application/json",
						"type": "text"
					}
				],
				"url": {
					"raw": "http://extendeal.test/api/pictures?fields=id,name,date,country_name&filters[country]=SLV&per_page=3",
					"protocol": "http",
					"host": [
						"extendeal",
						"test"
					],
					"path": [
						"api",
						"pictures"
					],
					"query": [
						{
							"key": "fields",
							"value": "id,name,date,country_name"
						},
						{
							"key": "filters[country]",
							"value": "SLV"
						},
						{
							"key": "per_page",
							"value": "3"
						}
					]
				}
			},
			"response": []
		},
		{
			"name": "Save Picture",
			"request": {
				"method": "POST",
				"header": [
					{
						"key": "HTTP-USER-ID",
						"value": "1",
						"type": "text"
					},
					{
						"key": "Accept",
						"value": "application/json",
						"type": "text"
					},
					{
						"key": "Content-Type",
						"value": "application/json",
						"type": "text"
					}
				],
				"body": {
					"mode": "raw",
					"raw": "{\n    \"name\": \"Otro nuevo Cuadro\",\n    \"creation_date\": \"2021-01-01\",\n    \"description\": \"Una breve descripción\",\n    \"country_id\": 14,\n    \"writer_id\": 9\n}"
				},
				"url": {
					"raw": "http://extendeal.test/api/pictures",
					"protocol": "http",
					"host": [
						"extendeal",
						"test"
					],
					"path": [
						"api",
						"pictures"
					]
				}
			},
			"response": []
		},
		{
			"name": "Update Picture",
			"request": {
				"method": "PUT",
				"header": [
					{
						"key": "HTTP-USER-ID",
						"value": "1",
						"type": "text"
					},
					{
						"key": "Accept",
						"value": "application/json",
						"type": "text"
					},
					{
						"key": "Content-Type",
						"value": "application/json",
						"type": "text"
					}
				],
				"body": {
					"mode": "raw",
					"raw": "{\n    \"name\": \"Un nuevo Cuadro editado\",\n    \"creation_date\": \"2021-01-31\",\n    \"description\": \"Una breve descripción\",\n    \"country_id\": 14,\n    \"writer_id\": 9\n}"
				},
				"url": {
					"raw": "http://extendeal.test/api/pictures/1",
					"protocol": "http",
					"host": [
						"extendeal",
						"test"
					],
					"path": [
						"api",
						"pictures",
						"1"
					]
				}
			},
			"response": []
		},
		{
			"name": "show Picture",
			"request": {
				"method": "GET",
				"header": [
					{
						"key": "HTTP-USER-ID",
						"value": "1",
						"type": "text"
					},
					{
						"key": "Accept",
						"value": "application/json",
						"type": "text"
					},
					{
						"key": "Content-Type",
						"value": "application/json",
						"type": "text"
					}
				],
				"url": {
					"raw": "http://extendeal.test/api/pictures/1",
					"protocol": "http",
					"host": [
						"extendeal",
						"test"
					],
					"path": [
						"api",
						"pictures",
						"1"
					]
				}
			},
			"response": []
		},
		{
			"name": "Delete Picture",
			"request": {
				"method": "DELETE",
				"header": [
					{
						"key": "HTTP-USER-ID",
						"value": "1",
						"type": "text"
					},
					{
						"key": "Accept",
						"value": "application/json",
						"type": "text"
					},
					{
						"key": "Content-Type",
						"value": "application/json",
						"type": "text"
					}
				],
				"url": {
					"raw": "http://extendeal.test/api/pictures/1",
					"protocol": "http",
					"host": [
						"extendeal",
						"test"
					],
					"path": [
						"api",
						"pictures",
						"1"
					]
				}
			},
			"response": []
		}
	]
}